,0,1,2,3,4,5,6,7,8,9,10,11,12,13,14,15
LogisticRegression,"{'Mean score': 0.4027, 'Std score': 0.0659}","{'Mean score': 0.4027, 'Std score': 0.0659}","{'Mean score': 0.4027, 'Std score': 0.0659}","{'Mean score': 0.4027, 'Std score': 0.0659}","{'Mean score': 0.4027, 'Std score': 0.0659}","{'Mean score': 0.4027, 'Std score': 0.0659}","{'Mean score': 0.4027, 'Std score': 0.0659}","{'Mean score': 0.4027, 'Std score': 0.0659}","{'Mean score': 0.4027, 'Std score': 0.0659}","{'Mean score': 0.4027, 'Std score': 0.0659}","{'Mean score': 0.4027, 'Std score': 0.0659}","{'Mean score': 0.4027, 'Std score': 0.0659}","{'Mean score': 0.4027, 'Std score': 0.0659}","{'Mean score': 0.4027, 'Std score': 0.0659}","{'Mean score': 0.4027, 'Std score': 0.0659}","{'Mean score': 0.4027, 'Std score': 0.0659}"
PassiveAggressiveClassifier,"{'Mean score': 0.3313, 'Std score': 0.1013}","{'Mean score': 0.3528, 'Std score': 0.1271}","{'Mean score': 0.343, 'Std score': 0.1156}","{'Mean score': 0.3438, 'Std score': 0.102}","{'Mean score': 0.3452, 'Std score': 0.1121}","{'Mean score': 0.3317, 'Std score': 0.1286}","{'Mean score': 0.3239, 'Std score': 0.1196}","{'Mean score': 0.3316, 'Std score': 0.1188}","{'Mean score': 0.3059, 'Std score': 0.1439}","{'Mean score': 0.3384, 'Std score': 0.1337}","{'Mean score': 0.3256, 'Std score': 0.1346}","{'Mean score': 0.3355, 'Std score': 0.1139}","{'Mean score': 0.3256, 'Std score': 0.1219}","{'Mean score': 0.3258, 'Std score': 0.1334}","{'Mean score': 0.3204, 'Std score': 0.1408}","{'Mean score': 0.3412, 'Std score': 0.0937}"
RandomForest,"{'Mean score': 0.3262, 'Std score': 0.0665}","{'Mean score': 0.3143, 'Std score': 0.068}","{'Mean score': 0.3199, 'Std score': 0.0607}","{'Mean score': 0.3222, 'Std score': 0.0636}","{'Mean score': 0.3155, 'Std score': 0.0688}","{'Mean score': 0.3242, 'Std score': 0.0603}","{'Mean score': 0.3178, 'Std score': 0.0662}","{'Mean score': 0.3256, 'Std score': 0.0646}","{'Mean score': 0.3168, 'Std score': 0.0642}","{'Mean score': 0.3261, 'Std score': 0.0649}","{'Mean score': 0.3173, 'Std score': 0.0656}","{'Mean score': 0.3178, 'Std score': 0.0603}","{'Mean score': 0.3218, 'Std score': 0.0534}","{'Mean score': 0.316, 'Std score': 0.0718}","{'Mean score': 0.3193, 'Std score': 0.063}","{'Mean score': 0.3179, 'Std score': 0.0655}"
KNN,"{'Mean score': 0.3431, 'Std score': 0.0607}","{'Mean score': 0.3431, 'Std score': 0.0607}","{'Mean score': 0.3431, 'Std score': 0.0607}","{'Mean score': 0.3431, 'Std score': 0.0607}","{'Mean score': 0.3431, 'Std score': 0.0607}","{'Mean score': 0.3431, 'Std score': 0.0607}","{'Mean score': 0.3431, 'Std score': 0.0607}","{'Mean score': 0.3431, 'Std score': 0.0607}","{'Mean score': 0.3431, 'Std score': 0.0607}","{'Mean score': 0.3431, 'Std score': 0.0607}","{'Mean score': 0.3431, 'Std score': 0.0607}","{'Mean score': 0.3431, 'Std score': 0.0607}","{'Mean score': 0.3431, 'Std score': 0.0607}","{'Mean score': 0.3431, 'Std score': 0.0607}","{'Mean score': 0.3431, 'Std score': 0.0607}","{'Mean score': 0.3431, 'Std score': 0.0607}"
SVC,"{'Mean score': 0.384, 'Std score': 0.0554}","{'Mean score': 0.384, 'Std score': 0.0554}","{'Mean score': 0.384, 'Std score': 0.0554}","{'Mean score': 0.384, 'Std score': 0.0554}","{'Mean score': 0.384, 'Std score': 0.0554}","{'Mean score': 0.384, 'Std score': 0.0554}","{'Mean score': 0.384, 'Std score': 0.0554}","{'Mean score': 0.384, 'Std score': 0.0554}","{'Mean score': 0.384, 'Std score': 0.0554}","{'Mean score': 0.384, 'Std score': 0.0554}","{'Mean score': 0.384, 'Std score': 0.0554}","{'Mean score': 0.384, 'Std score': 0.0554}","{'Mean score': 0.384, 'Std score': 0.0554}","{'Mean score': 0.384, 'Std score': 0.0554}","{'Mean score': 0.384, 'Std score': 0.0554}","{'Mean score': 0.384, 'Std score': 0.0554}"
