,BlockA,BlockB,BlockC,BlockD,BlockE
LogisticRegression,"[0.0, {'m__C': 0.0001, 'm__solver': 'lbfgs'}]","[0.5141999569689384, {'m__C': 0.1, 'm__solver': 'lbfgs'}]","[0.415394146563704, {'m__C': 0.001, 'm__solver': 'liblinear'}]","[0.3969857711488615, {'m__C': 0.0001, 'm__solver': 'liblinear'}]","[0.3919123774533817, {'m__C': 0.001, 'm__solver': 'liblinear'}]"
PassiveAggressiveClassifier,"[0.07844715139510694, {'m__C': 0.1, 'm__loss': 'squared_hinge'}]","[0.5408955623787804, {'m__C': 0.01, 'm__loss': 'hinge'}]","[0.40874860371091526, {'m__C': 0.01, 'm__loss': 'squared_hinge'}]","[0.3431439162858623, {'m__C': 0.0001, 'm__loss': 'hinge'}]","[0.39342734770061305, {'m__C': 0.0001, 'm__loss': 'hinge'}]"
RandomForest,"[0.0, {'m__criterion': 'gini', 'm__max_depth': 10, 'm__max_features': 'auto', 'm__n_estimators': 20}]","[0.5389841577509482, {'m__criterion': 'entropy', 'm__max_depth': 50, 'm__max_features': 'sqrt', 'm__n_estimators': 20}]","[0.3478341140548066, {'m__criterion': 'entropy', 'm__max_depth': 10, 'm__max_features': 'sqrt', 'm__n_estimators': 140}]","[0.32708618905856157, {'m__criterion': 'entropy', 'm__max_depth': 40, 'm__max_features': 'auto', 'm__n_estimators': 60}]","[0.33161980885242304, {'m__criterion': 'entropy', 'm__max_depth': 20, 'm__max_features': 'sqrt', 'm__n_estimators': 40}]"
KNN,"[0.0, {'m__algorithm': 'brute', 'm__n_neighbors': 2, 'm__p': 1, 'm__weights': 'uniform'}]","[0.4285410634786001, {'m__algorithm': 'auto', 'm__n_neighbors': 7, 'm__p': 2, 'm__weights': 'uniform'}]","[0.3815323634699492, {'m__algorithm': 'auto', 'm__n_neighbors': 7, 'm__p': 1, 'm__weights': 'uniform'}]","[0.32599443236151754, {'m__algorithm': 'auto', 'm__n_neighbors': 8, 'm__p': 1, 'm__weights': 'distance'}]","[0.30559485422007254, {'m__algorithm': 'auto', 'm__n_neighbors': 8, 'm__p': 2, 'm__weights': 'uniform'}]"
SVC,"[0.0, {'m__C': 0.0001, 'm__kernel': 'linear'}]","[0.5652316563744375, {'m__C': 10.0, 'm__gamma': 0.01, 'm__kernel': 'rbf'}]","[0.38869287360631766, {'m__C': 10.0, 'm__gamma': 0.1, 'm__kernel': 'rbf'}]","[0.39790696784669854, {'m__C': 100.0, 'm__gamma': 0.1, 'm__kernel': 'rbf'}]","[0.39316297514430254, {'m__C': 100.0, 'm__gamma': 0.01, 'm__kernel': 'rbf'}]"
