,cumulative calibrated explained variance in X
Comp 0,0.0
Comp 1,44.448931203529426
Comp 2,55.28899368215794
Comp 3,65.32665789804824
Comp 4,72.90391212962669
Comp 5,83.19018814525292
Comp 6,94.01930887785102
Comp 7,100.0
