,MCC score,f1 score positive class,f1 score negative class,accuracy
1,0.396,0.5161,0.8399,0.7594
2,0.4395,0.5435,0.85,0.7742
3,0.4395,0.5435,0.85,0.7742
4,0.3971,0.5263,0.8375,0.7581
5,0.3823,0.5106,0.8357,0.754
6,0.4238,0.5057,0.8491,0.7688
7,0.3321,0.4615,0.8256,0.7366
8,0.4586,0.5859,0.8498,0.7796
9,0.4877,0.6061,0.8582,0.7914
10,0.2391,0.4167,0.7971,0.6989
11,0.4699,0.5745,0.8561,0.7849
12,0.4391,0.5333,0.8511,0.7742
13,0.34,0.5098,0.8162,0.7326
14,0.3749,0.4524,0.8403,0.7527
15,0.4076,0.5,0.8451,0.7634
16,0.4884,0.6139,0.8561,0.7903
17,0.4244,0.5169,0.8491,0.7701
18,0.3703,0.5385,0.8209,0.7419
19,0.3249,0.4235,0.8293,0.7366
20,0.4719,0.5918,0.854,0.7849
21,0.3932,0.4578,0.8454,0.7594
22,0.4361,0.5825,0.8401,0.7688
23,0.4569,0.5773,0.8509,0.7796
24,0.3221,0.4681,0.8201,0.7312
25,0.3947,0.549,0.8309,0.754
26,0.4556,0.5684,0.852,0.7796
27,0.3749,0.4524,0.8403,0.7527
28,0.395,0.5161,0.8387,0.7581
29,0.3617,0.4719,0.8351,0.7487
30,0.4483,0.5882,0.8444,0.7742
31,0.4081,0.5111,0.844,0.7634
32,0.4081,0.5111,0.844,0.7634
33,0.217,0.3871,0.7972,0.6952
34,0.4556,0.5684,0.852,0.7796
35,0.4697,0.5652,0.8571,0.7849
36,0.4848,0.5895,0.8592,0.7903
37,0.3879,0.5306,0.8333,0.754
38,0.4081,0.5111,0.844,0.7634
39,0.3758,0.4773,0.838,0.7527
40,0.4305,0.5657,0.8425,0.7688
